INDEX VERSION 1.131+C:\Users\LsMarquez\Documents\workspace-sts-4\.metadata\.plugins\org.eclipse.jdt.core
2624726496.index
3421819425.index
2205290751.index
1713172528.index
2686296187.index
3032694404.index
2605561000.index
715107097.index
1614919031.index
2828169528.index
1296103107.index
2308444014.index
1303184529.index
177638979.index
2202167482.index
2111512668.index
124558605.index
3745837425.index
3579902010.index
3104340509.index
