INDEX VERSION 1.4+C:\Users\LsMarquez\Documents\workspace-sts-4\.metadata\.plugins\org.eclipse.wst.jsdt.core\indexes
1555501206.index
1770861393.index
1606958454.index
3422643882.index
3144414441.index
1614919031.index
2866342063.index
